{
    "id": "urn:ngsi-ld:PrivacyObject:1044_parking",
    "type": "PrivacyObject",
    "refDevice": "Device:1044_parking",
    "name": "1004_parking",
    "location": {
        "type": "Point",
        "coordinates": [46.18311, 6.14132]
    },
    "isIndoor": false,
    "floor": 0,
    "description": ["Electromagnetic and ultrasonic sensor", "", "Capteur électromagnétique et à ultrasons", "", "", "", "", ""],
    "user": "abcdef",
    "purpose": ["Detecting the presence of a vehicle on a parking slot.", "", "Détecter la présence d'un véhicule sur une place de parc.", "", "", "", "", ""],
    "category": "Parking sensor",
    "recipientList": ["Communal administration", "Motorists"],
    "organization": "City of Carouge",
    "personalData": false,
    "retentionPeriod": "< 1 month",
    "legitimateInterest": "Facilitate and understand parking habits",
    "crossborderTransfer": "None",
    "image": "device1.jpg"
}